1322104124;1
3242321490;2
3420625804;3
3242330722;4
1981046621;5
3114852038;6
3483162699;002032;Tengku Omar(PLUSCARD)
1480275197;000288;MOHD HAIZAM(PLUS CARD)
670738908;000288;HAIZAM TEST CARD 
3483504299;000456;KHAIRIZA CTO OFFICE(TERAS CARD)
0335325071;000300;AHAD FSS (PLUS CARD)
3483497419;7;RAMZI KAD ACCESS TERAS
3483522843;000333;SAIFUL KHAIRI KAD ACCESS TERAS
3483166827;3483166827;JAMAL WAHID
1480172301;1480172301;KHAIRUL ANWAR
1480096381;1480096381;HELMI HAFIFI
3483163291;3483163291;NIZAMMUDDIN MOHD TAIB
1480323197;1480323197;AHMAD RAFIAE
1480204445;001030;HASNOL
3588731404;3588731404;ZAMFAZLIN(PLUS)
1480098877;10936;MOHDAZIAN(PLUS)
H340095FA87374CDDF2D185A2B344;6
H00003000E200680A0000000000000000;002032
H00034004AA2290777ED70761BD4F818;002031
H0003400E20020847402014019105261;123456
H0003400AA11BB22CC33DD44EE55FFB1;2242032452;MAIDIN MAME(RFID HEADLIGHT)
H0003400AA11BB22CC33DD44EE55FFB2;002032;TENGKU OMAR(RFID HEADLIGHT)
H76116DEC;1;Noraffendi(FSS)
H13DB648F;1;Syamsul Said(FSS)
2397514930;1;Omar(SmartTag)
H0003400AD0D30E2FF2C4CE3D1F41D6A;3522436458;IR AZMAN MASBAH
H0003400AAC27CD8C1358F2C2E002B23;771762979;DATO NOORIZAH HJ ABD HAMID
H0003400893ED4FA3F1865C4206792FE;543658750;MOHAMMAD FUAD KHUSAIRI
H000340041C8E9B924856DA60680BFA8;109100968;IR MOHD ZULASTRI MOHD AMIN
H0003400DD7FAF02F6BE748F13209C84;320904324;MOHD HALMI HASSAN
H0003400576D7C5989BD0954FF76FB69;4285987689;Noor Meiza Binti Ahmad
H0003400D08A2E9495D10D212C65FA72;744880754;MUHAMMAD FARIS SHAUKHI SHAHABUDIN
H000340031875375D8074B6452344313;1379156755;Hajah Bayati
H0003400CD7DAE6DDCEE954BFC7D59BE;4236073406;Yusuf Ab Aziz
H00034007C9C44BD65D24763CB44D75D;3410286429;Noraliza Shuib
H0003400B0CCCC98D553390A8DF43821;2381592609;NOR HISHAM BAJURI
H0003400D848038F72BE880CDD64D04F;3714371663;NOOR BAHAYAH IBRAHIM
H00034003F16D69CC5D08E65D9747CBF;3648289983;Mohd Jasmer Bin Sathilan
H0003400212088EBDE30C33ABC4A2CDB;3158977755;Zulkarnain Bin Mohamed
H00034007A95E35F21117620D832EAEA;3627215594;PLUS POOL CAR - PROTON PERDANA
H00034003F98201A42F166FD35B6DD84;901176708;PLUS POOL CAR - PROTON PERDANA(backup)
H0003400C8CFF5F19538BCB233CA47C2;868894658;PLUS POOL CAR - HYUNDAI STAREX
H0003400D517FCD167836DFC707C5273;1887195763;PLUS POOL CAR - TOYOTA FORTUNER
H000340077CFF43383B48D0BB1F92AB3;2985896627;IR ABD RAHIM SELIMAN
H00034004E872EBD53769EAAB34327A4;3007522724;BAHRIN SARIF
H0003400D3E60709AF4D49A0F56A8703;4117399299;AZLEE ZAINAL ABIDIN
H00034005982C806802663F2CDFC9B45;3455884101;MOHD HAIZAM ABD LATIF
H0003400BEB2D4A0D96DAB6C6ED3F1BA;1859383738;MOHAMAD BIN IBRAHIM
H00034007F7C6E010746A1D0688B925C;1753977436;TENGKU OMAR ZAINAL ABIDIN
H000340067BCBA95E6390E8988303568;2284860776;FARA AZHA AZMI
H0003400B862EB865ACADDBECA2833C4;3391632324;SAIFUL KHAIRI ISHAK
H0003400E20B8479AA03D54F47052E21;1191521825;CHE HUSSIN ISMAIL 
H000340095FA87374CDDF2D185A2B344;2242032452;MAIDIN MAME
H00034004A5C859B819CA16BB3B98D5E;3015282014;ZALIFA ZAINAL
H00034005BBB74AF61B9D39BDF3126FB;3744540411;AZMI ABDUL RAHMAN
H000340066D3AC3B1CA7B9544947DE5F;1229446751;SURIA SAID
H00034005EBB5AB2EF7F8D24530A6121;1393189153;NIK ASYRAF NIK MOHAMED ARIFF
H0003400B81508A878CAE2DB520CBC4D;1376566349;Dato' Ir. Hj. Ismail Md. Salleh;Ketua Pengarah LLM
H0003400B5E0941282F5FC325A89CF48;1518980936;Dato' Sr. Aziz bin Abdullah;Timbalan Ketua Pengarah(Bisnes) LLM
H00034008524757FC4588188A651B8FC;2790373628;Ir Mohd Salleh b Santhiman
H0003400A81D30EA5F15C329D189498E;3515435406;KHAIRIZA KAMARUDIN
H000340068CE447491171030C34DB55F;3276649823;Dr Jamilah Marjan;Ketua Pengarah KKR
H000340048554EAA44429BE660EC416A;1626095978;tester  20
H00034008CB9124B65483ED773F00D7F;1945111935;tester  21
H0003400C1A642B5313BA1A5689A7EB9;1754955449;tester 22
H0003400A0D2EE70EBB7F094BB732E68;3144887912;
H0003400C17E2B4799FB02ADD6951E8B;3600096907;Syairul Toll Dept
H00034004C31BAB0AAEAFE198AA989E7;2326366695;
H000340036D8E7517B5DCFFE69CBFB68;1774975848;
H0003400405203EC96040186C69AF9B6;3332045238;
H00034001DF73E77EE5FA80BB462409A;3026337946;
H000340030508117AD69F7D199C3145F;2579698783;
H0003400AA11BB22CC33DD44EE55FFB3;0000002032;BAHRIN SARIF(RFID HEADLAMP)
H0003400AA11BB22CC33DD44EE55FFB7;0000002030;KHAIRIZA
H0003400AA11BB22CC33DD44EE55FFB8;0000002033;AZLINA ABDUL AZIZ (RFID HEADLAMP)
H0003400AA11BB22CC33DD44EE55FFB9;0000002034;NAZAMIL
H0003400AA11BB22CC33DD44EE55FFBA;0000002035;ZIKRI
H0003400AA11BB22CC33DD44EE55FFBB;0000002036;LOTFI
H0003400AA11BB22CC33DD44EE55FFB6;0000002037;MALEK
H0003400AA11BB22CC33DD44EE55FFBD;0000002038;KHAIRIZA NISSAN
H0003400AA11BB22CC33DD44EE55FFBC;3998613436;UNKNOWN
H0003400AA11BB22CC33DD44EE55FFC3;0000002035;ZIKRI(Subaru)
H0003400AA11BB22CC33DD44EE55FFC0;0000002035;HARIDAN
H0003400AA11BB22CC33DD44EE55FFBE;0000002035;KIFLY
H0003400AA11BB22CC33DD44EE55FFC6;0000002035;NAZAMIL(FORD)
H000340037111101000000720100FE00;0000000007;MASUAN UEM/KKR (test)
H0003400371111010000007601003F41;0000000087;khatib
H0003400FBBD556818951B448E89D23D;0000000089;Jamal Test Tag
H000340048BEA141242E948F1498917D;0000000076;RAHUL AKMAR (HR)
H000340037111101000000A21040A70C;0272672524;ZALIFA (RFID HEADLAMP)
H0003400C5EBC2916708292C2B5087AC;0000000016;Jeff FSS trial sticker with Teras Logo plastic
H0003400D3873CE2E2A14602D8684962;12345:renee-aziz
H0003400DEF35E5901234500A8000000;3588637388;wan_drac
H0003400DEF35E5901234500A8000000;21225057;one_d
H0000987654321232543077585;3352008820;Azmi
H0003412018CC2FFEE4F7F17151E019430054ABBFF80DC00;272657261;renee
H0003400371111010000009C10406B6D;272657261 ;Rene'e Aziz Ahmad
H000340037111101000000A11040A7FC;365491887;Noor Mieza Ahmad
H0003400112233445566778899001122;0000000000;WXB733(POOL)
H0003400371111010000009910406A7D;0000000000;khatib-headlamp
H0003588637388;3588637388;wan_dracul
H0003588637388;3588637388;wan_drac
3588637388;3588637388;wan_drac
H0003400371111010000009D1040AB3C;123456789098;RENEEZ_NEW
123456789098;123456789098;RENEEZ_NEW
H000340037110311000000A9100081ED;1234567890;wannazli_down110915
1234567890;1234567890;wannazli_down110915
H0003409876878999;3588644540;reg_11_09_15new
3588644540;3588644540;reg_11_09_15new
H000987787675445;3589056444;reg_13_09_15
3589056444;3589056444;reg_13_09_15
H0009292929292;1273322568;reg_10-9-15new
1273322568;1273322568;reg_10-9-15new
H00011111111111111;1111111111111111;wan_drac
1111111111111111;1111111111111111;wan_drac
H0001827186348;1827186348;reg_17-9-15
1827186348;1827186348;reg_17-9-15
H0001480037005;1480037005;reg_17-9-15_a
1480037005;1480037005;reg_17-9-15_a
H00034004BBA5790567C8786362FEC7;090987654;zamfazi
090987654;090987654;zamfazi
H0003400A0FFB7E677F7164C6BD6A730;656565656565;siti khadijah
656565656565;656565656565;siti khadijah
H00034004BBA5790567C8786362FEC7;16161616161;zamfazlin
16161616161;16161616161;zamfazlin
H000371111010000007B0100FCD0;0000000000;Muhammad Khatib Khalid
0000000000;0000000000;Muhammad Khatib Khalid
H00034004BB8A5790567C8786362FEC7;0000000000;Zamfazlin Bin Kamarulzaman
0000000000;0000000000;Zamfazlin Bin Kamarulzaman
H000E20034120133FB00008821551903008100055FFBFFFFDC40;000000000000;unknown2
000000000000;000000000000;unknown2
H0003400371111010000007A01003C81;456346346346;En.YUSOF
456346346346;456346346346;En.YUSOF
H0003400371111010000007B0100FCD0;46346346356;Muhammad Khatib Khalid
46346346356;46346346356;Muhammad Khatib Khalid
H0003647277060;3647277060;entah1
3647277060;3647277060;entah1
H00034005DBD5B0223B5B7BE9BCB4DF3;3589056828;RAFI
3589056828;3589056828;RAFI
H000340037111101000000710100FEF0;1122334455;entah1-kat-plus
1122334455;1122334455;entah1-kat-plus
H000E2003412013EC0FFEEBA61D502020086000546BBFF80D;0000000000;unknown388888
0000000000;0000000000;unknown388888
H0003400F9C5E97DB3FB75C8A3D21B7D;3322116655;PCU_demo tag
3322116655;3322116655;PCU_demo tag
H0003400AA11BB22CC33DD44EE55FFBF;887766677;POOL-PRJ
887766677;887766677;POOL-PRJ
H0003400AF00ECEDEA8AB030EBA6D522;443366229988;WXB-716-mior
443366229988;443366229988;WXB-716-mior
H0003400828AC2262B453D27B9ED88CA;3655551141;wan-nazli
H00034006C718F83D0DAE5D82B812030;1234565444;FAUZI
1234565444;1234565444;FAUZI
H0000x3400AA11BB22CC33DD44EE55FFC2;2244668811;norliza_shuib_1
2244668811;2244668811;norliza_shuib_1
