1322104124;1
3242321490;2
3420625804;3
3242330722;4
1981046621;5
3114852038;6
3483162699;002032;Tengku Omar(PLUSCARD)
1480275197;000288;MOHD HAIZAM(PLUS CARD)
3483497419;7;RAMZI KAD ACCESS TERAS
3483166827;3483166827;JAMAL WAHID
1480096381;1480096381;HELMI HAFIFI
1480098877;10936;MOHDAZIAN(PLUS)
H340095FA87374CDDF2D185A2B344;6
H00003000E200680A0000000000000000;002032
H00034004AA2290777ED70761BD4F818;002031
H0003400AA11BB22CC33DD44EE55FFB2;002032;TENGKU OMAR(RFID HEADLIGHT)
H76116DEC;1;Noraffendi(FSS)
2397514930;1;Omar(SmartTag)
H0003400AD0D30E2FF2C4CE3D1F41D6A;3522436458;IR AZMAN MASBAH
H0003400AAC27CD8C1358F2C2E002B23;771762979;DATO NOORIZAH HJ ABD HAMID
H0003400893ED4FA3F1865C4206792FE;543658750;MOHAMMAD FUAD KHUSAIRI
H0003400DD7FAF02F6BE748F13209C84;320904324;MOHD HALMI HASSAN
H000340031875375D8074B6452344313;1379156755;Hajah Bayati
H0003400CD7DAE6DDCEE954BFC7D59BE;4236073406;Yusuf Ab Aziz
H00034007C9C44BD65D24763CB44D75D;3410286429;Noraliza Shuib
H0003400D848038F72BE880CDD64D04F;3714371663;NOOR BAHAYAH IBRAHIM
H00034003F16D69CC5D08E65D9747CBF;3648289983;Mohd Jasmer Bin Sathilan
H0003400212088EBDE30C33ABC4A2CDB;3158977755;Zulkarnain Bin Mohamed
H00034007A95E35F21117620D832EAEA;3627215594;PLUS POOL CAR - PROTON PERDANA
H00034003F98201A42F166FD35B6DD84;901176708;PLUS POOL CAR - PROTON PERDANA(backup)
H0003400C8CFF5F19538BCB233CA47C2;868894658;PLUS POOL CAR - HYUNDAI STAREX
H0003400D517FCD167836DFC707C5273;1887195763;PLUS POOL CAR - TOYOTA FORTUNER
H000340077CFF43383B48D0BB1F92AB3;2985896627;IR ABD RAHIM SELIMAN
H00034004E872EBD53769EAAB34327A4;3007522724;BAHRIN SARIF
H0003400D3E60709AF4D49A0F56A8703;4117399299;AZLEE ZAINAL ABIDIN
H00034005982C806802663F2CDFC9B45;3455884101;MOHD HAIZAM ABD LATIF
H0003400BEB2D4A0D96DAB6C6ED3F1BA;1859383738;MOHAMAD BIN IBRAHIM
H00034007F7C6E010746A1D0688B925C;1753977436;TENGKU OMAR ZAINAL ABIDIN
H000340067BCBA95E6390E8988303568;2284860776;FARA AZHA AZMI
H00034004A5C859B819CA16BB3B98D5E;3015282014;ZALIFA ZAINAL
H00034005BBB74AF61B9D39BDF3126FB;3744540411;AZMI ABDUL RAHMAN
H000340066D3AC3B1CA7B9544947DE5F;1229446751;SURIA SAID
H0003400B81508A878CAE2DB520CBC4D;1376566349;Dato' Ir. Hj. Ismail Md. Salleh;Ketua Pengarah LLM
H000340048554EAA44429BE660EC416A;1626095978;tester  20
H00034008CB9124B65483ED773F00D7F;1945111935;tester  21
H0003400A0D2EE70EBB7F094BB732E68;3144887912;
H00034004C31BAB0AAEAFE198AA989E7;2326366695;
H000340036D8E7517B5DCFFE69CBFB68;1774975848;
H0003400405203EC96040186C69AF9B6;3332045238;
H00034001DF73E77EE5FA80BB462409A;3026337946;
H000340030508117AD69F7D199C3145F;2579698783;
H0003400AA11BB22CC33DD44EE55FFB3;0000002032;BAHRIN SARIF(RFID HEADLAMP)
H0003400AA11BB22CC33DD44EE55FFB8;0000002033;AZLINA ABDUL AZIZ (RFID HEADLAMP)
H0003400AA11BB22CC33DD44EE55FFB9;0000002034;NAZAMIL
H0003400AA11BB22CC33DD44EE55FFBA;0000002035;ZIKRI
H0003400AA11BB22CC33DD44EE55FFBB;0000002036;LOTFI
H0003400AA11BB22CC33DD44EE55FFBC;3998613436;UNKNOWN
H0003400AA11BB22CC33DD44EE55FFC3;0000002035;ZIKRI(Subaru)
H0003400AA11BB22CC33DD44EE55FFC0;0000002035;HARIDAN
H0003400AA11BB22CC33DD44EE55FFBE;0000002035;KIFLY
H0003400AA11BB22CC33DD44EE55FFC6;0000002035;NAZAMIL(FORD)
H000340037111101000000720100FE00;0000000007;MASUAN UEM/KKR (test)
H0003400371111010000007601003F41;0000000087;khatib
H0003400FBBD556818951B448E89D23D;0000000089;Jamal Test Tag
H000340048BEA141242E948F1498917D;0000000076;RAHUL AKMAR (HR)
H000340037111101000000A21040A70C;0272672524;ZALIFA (RFID HEADLAMP)
H0003400C5EBC2916708292C2B5087AC;0000000016;Jeff FSS trial sticker with Teras Logo plastic
H0000987654321232543077585;3352008820;Azmi
H0003412018CC2FFEE4F7F17151E019430054ABBFF80DC00;272657261;renee
H000340037111101000000A11040A7FC;365491887;Noor Mieza Ahmad
H0003400112233445566778899001122;0000000000;WXB733(POOL)
H0003400371111010000009910406A7D;0000000000;khatib-headlamp
H0003588637388;358837388;wan_dracul
H0003588637388;358637388;wan_drac
3588637388;3588637388;wan_drac
H0003409876878999;3588644540;reg_11_09_15new
3588644540;3588644540;reg_11_09_15new
H000987787675445;358905444;reg_13_09_15
3589056444;3589056444;reg_13_09_15
H0009292929292;1273322568;reg_10-9-15new
1273322568;127332268;reg_10-9-15new
H0001827186348;1827186348;reg_17-9-15
1827186348;1827186348;reg_17-9-15
H0001480037005;1480037005;reg_17-9-15_a
1480037005;1480037005;reg_17-9-15_a
H00034004BBA5790567C8786362FEC7;090987654;zamfazi
090987654;090987654;zamfazi
H0003400A0FFB7E677F7164C6BD6A730;6565656665;siti khadijah
6565656565;6565656565;siti khadijah
H00034004BBA5790567C8786362FEC7;16161616161;zamfazlin
16161616161;16161616161;zamfazlin
H000371111010000007B0100FCD0;0000000000;Muhammad Khatib Khalid
0000000000;0000000000;Muhammad Khatib Khalid
H00034004BB8A5790567C8786362FEC7;22200000;Zamfazlin Bin Kamarulzaman
222000000;222000000;Zamfazlin Bin Kamarulzaman
H000E20034120133FB00008821551903008100055FFBFFFFDC40;000000000000;unknown2
000000000000;000000000000;unknown2
H0003400371111010000007A01003C81;456346346346;En.YUSOF
456346346346;456346346346;En.YUSOF
H0003400371111010000007B0100FCD0;46346346356;Muhammad Khatib Khalid
46346346356;46346346356;Muhammad Khatib Khalid
H0003647277060;3647277060;entah1
3647277060;3647277060;entah1
H00034005DBD5B0223B5B7BE9BCB4DF3;3589056828;RAFI
3589056828;3589056828;RAFI
H000340037111101000000710100FEF0;1122334455;entah1-kat-plus
1122334455;1122334455;entah1-kat-plus
H0003400F9C5E97DB3FB75C8A3D21B7D;3322116655;PCU_demo tag
3322116655;3322116655;PCU_demo tag
H0003400AF00ECEDEA8AB030EBA6D522;44336629988;WXB-716-mior
443366229988;4433662299;WXB-716-mior
H0003400828AC2262B453D27B9ED88CA;3655551141;wan-nazli
H00034009FB536086B30578C3F87A5F4;6745745730;2_reg_12-10-15
H00034003018000A5BE11C40000B20F8 ;959595959;reg_13_10_15
H0003400000000000000000002121117 ;08764234234;reg_13_10_15_a
H00034003018000A5BE11C40000AF31E;3582237388;reg_13_10_15_b
H000340037111101000000710100FEF0;564564562;reg_13_10_15_c
H000340001B32C000000000000000000;3588607388;reg_13_10_15_d
H0003400111080000000000387342295;34001110;reg_13_10_15_e
H0003400112233445566778899001122;123232;regbywan
H00034004B3130383733424345330000;345330000;reg_16_10_15_a
H00034008C70D5282BE79333EAD85CE4;333558888;reg_18_10_15a
H0003400C17E2B4799FB02ADD6951E8B;12302588;reg_19_10_15a
H0003400383999C805998FA9101A6FD8;3588633388;reg_19_10_15_a
H0003400371111010000006B010039D1;1241241222;reg_19_10_15_b
H00034004B3130383733423938460000;9090909090;reg_19_10_15_c
H0003400D1FAF182EFECAA90C759FC15;5555566667;RAFIE_tag2
H00030004B3130383733424345330000;9955223555;reg_21_10_15a
H00034000FA3EAE0BF1A3F1A0408752C;35520669852;reg_21_10_15b
H0003400C5EBC2916708292C2B5087AC;302359325;reg_21_10_15c
H0003400111080000000000282095795;243242342;reg_22_10_15a
H000340068CE447491171030C34DB55F;3276649823;Asfarizam C4
H0003400058DBB000000000000000000;456754445;reg_26_10_15a
H000340021F89FC8061738B45C11AC04;3453453333;reg_26_10_15b
H00034003018000A5BE11C4000107E32;4000107E32;reg_26_10_15_b
H0003400689A73E1B29050C69E4F3461;1827186348;MAIZATUL ZAILA
H0003400307619A7F000011000563E69;3400307619A7F;reg_30_10_15
H0003400A63A99D8055D4B6D1019FFC6;3400A63A9;reg_31_10_15
H0003400E20020626406008119704731;8119704731;reg_02_11_15
H00034003039ECBC01B37B812A060D71;34003039;reg_02_11_15a
H0003400000000000302041700000000;5345345435;reg_24_11_15
4343476867;4343476867;syazani
1111167576;1111167576;salabiah
4534534534;4534534534;cheramzi
8793453453;8793453453;edaazura
H0003400F7196704EEDB4152FCF56DDB;4234235656;reg_24_11_15a
4234235656;4234235656;reg_24_11_15a
3588727900;3588727900;reg_26_11_15a
H00034006FD382A4940F4BF387CEE679;3246656565;reg_30_11_15a
3246656565;3246656565;reg_30_11_15a
H0003400608C701A619BB052D072867F;3195943258;Fiyfiy Testing
3195943258;3195943258;Fiyfiy Testing
H0003400371111010000007501003FB1;4342212233;reg_01_12_15a
4342212233;4342212233;reg_01_12_15a
H0003400000000000000000000;3948980020;regmfg_01_12_15a
3948980020;3948980020;regmfg_01_12_15a
H0003400E200206900B45C000830C2B3;3453453453;reg091215a
3453453453;3453453453;reg091215a
H0003400AA11BB22CC33DD44EE55FFBD;3483504299;Khairiza Kamarudin - Headlamp test
3483504299;3483504299;Khairiza Kamarudin - Headlamp test
H0003400111150000000000539814695;9696969696;reg231215
9696969696;9696969696;reg231215
H0003400BAB83474423B35BF53C82D8E;3737373737;reg231215a
3737373737;3737373737;reg231215a
H0003400BECA8E7C0F51C7A61FF4165E;0000000000;Ir Azman Masbah(Perdana)
0000000000;0000000000;Ir Azman Masbah(Perdana)
000000;000000;Aqila Testing
H00034003282587F48E185C59C6C0852;3483504299;Khairiza Windscreen 2016
3483504299;3483504299;Khairiza Windscreen 2016
H0003400111150000000000036597695;1005656756;reg180116a
1005656756;1005656756;reg180116a
H00034000C210508074188672202162F;1623745745;reg200116a
1623745745;1623745745;reg200116a
H0003588810684;3588810684;reg210116a
3588810684;3588810684;reg210116a
H0003400371111010000006C0100F860;1119999191;reg310116a
1119999191;1119999191;reg310116a
H0003400371111010000006D01003831;9292929292;reg310116b
9292929292;9292929292;reg310116b
H000340030C431D4BE7710820B160441;1234213120;reg010216a
1234213120;1234213120;reg010216a
H0003400D186DAB8B20E5696D9FC0668;1212121212;WRT 5605
H0003400A91FE118CA3EA281DC2164A0;1212121212;WRV 2706
H0003400B1B5B7F6164CE85AD6CBE33F;1212121212;WB 8334 M
H000340055D1B0B5E2DDD5327029AF6E;1212121212;WRT 5749
H00034000189DFF56B646AF8CF9BC891;1212121212;WRT 5751
H0003400F28F7A62801E18D4E86BB0E3;1212121212;WRV 2564
H0003400EF02BB4B17B7D18AEE71B359;1212121212;W 1114 T
H0003400FDDFC70BBFB69E15EC260386;1212121212;WRT 5677
H0003400F8E1431E62A3455D3F555188;1212121212;WRT 5622
H0003400FE97D96198A7F8D197FF11A7;1212121212;WRV 2554
H0003400C3D0CDFB91048E9E0E8C0F86;1212121212;WB 8340 M
H0003400B8A11F1FA0EC504DC15607DB;1212121212;WRT 9350
H00034001A5E08F1565F14E639E02CBE;1212121212;WRV 2846
H00034009E960F39D08D086DC8F1089C;1212121212;WB 4022  L
H000340030C431D4BE7710820B160441;1212121212;WRV 2758
H0003400E35EF6624120A213C8152BD6;1212121212;WRT 5740
H00034002A95C7E82E293F29566BC192;1212121212;WRT 5634
H00034002D4028C1CFA9B38791CD5572;1212121212;WB 3560 L
H000340097A52BA74FF4D31A995BA928;1212121212;WXP 5482
H0003400AF2754E1D7DBEB779C643501;1212121212;BNF 3824
H0003400734866E560BEB5AF2520DBC9;1212121212;WB 3652 L
H0003400B851005AD8E85999F6E5FD23;1212121212;WB 8335 M
H000340032BF797A245ADA348822EAF4;1212121212;WRV 2573
H0003400AAAB670D893D4AF1556B3816;1212121212;WRV 2735
H0003400C0F881C8D8B9FCF707FA8546;1212121212;WRV 2536
H0003400052EFCBD1CF4113F9E5CB5BD;1212121212;WRV 2544
H0003400000000000020187700000000;4737556456;reg020216
4737556456;4737556456;reg020216
H0003400E20020840006340011809CCA;4568236683;reg020216b
4568236683;4568236683;reg020216b
H0003400ED8B0531D69C0691A3B1F629;1212121212;P1
1212121212;1212121212;P1
H00034003018000A5BE11C400015CE04;5678345647;reg050216a
5678345647;5678345647;reg050216a
3454523421;3454523421;reg050216b
H00034004B3130383733433538460000;3456488967;reg050216c
3456488967;3456488967;reg050216c
H0003400371111010000006801003921;7567236236;reg050216d
7567236236;7567236236;reg050216d
H000340037110111000004031000484D;5676734523;Hajah Suhaina
358254127;358254127;Hafizi_1
358292335;358292335;WAN_DRAC
H00034003711011100000404100089FC;9876557865;WXB503
H00034003711011100000405100049AD;9876544433;WNT1291
H000340037110111000004061000495D;4576567675;W1842Q
H000340037110111000004071000890C;5678567876;W4071Q
H0003400371101110000040810008A3C;6578987893;WXB488
H0003400371101110000040A10004A9D;4575657457;Mr Azlee
H0003400371101110000040910004A6D;99199999;WXB791
0358254127;0358254127;Hafizi
H00034007D02C3427690BFDD6B7C91E0;9999999;HAFIYFIYFIYFIY
H0003400DF022D86525E6A96D5376703;9999999;AZMI PCU
H000340037110111000004221000421D;9999999;Jefri Faisal WXB446
H0003400300833B2DDD9014000000000;9999999;SYAMSUL_BIGBOHH
H000340020A4DF673F81D879EA99CAFC;9999999;SPACE_COP_GABAN
H0003400371101110000041310008D4C;77777777;HULK HOGAN
H0003400964F9E429C46FC5754FD56F7;9999999;ZULHAFIZI_TAG2
H0003400D6B23CD5E75DDED6F8B908C1;9999999;NAJWA MOHAMAD
H000340076ADD8CD8BA0E6E958367076;9999999;ALAN SMITH
H0003400F935D4DF9291F0045A30D8E4;9999999;ALAN SMITH2
3620737053;3620737053;WAN_MFGSS
H0003400EB9B34D4B8E566683DB7AF0D;9999999;SURIA_PERKASA_HITAM
H0003400F4982F02F78A3D6F3D0242FD;9999999;POWER_PUFF_GIRLS
H0003400ee99836e3a2174d29bdf2f11;9999999;GUARDHOUSE1
H00034001c40418a112d0a8dc5f8f92d;9999999;GABAN_MALAYSIA
H000340068372fff07a20f8c59db3828;9999999;OK_BOSS
H0003400d171cc785b1b9a3b77c871c0;9999999;ENTAH_LER_DER
H00034004475e0cc4e35234130011803;9999999;SPACE_COP_GABAN5
H00034002c41bc0999e8b99ca6ac6981;9999999;SHANE_ONEIL
H00034003711011100000424100043FD;9999999;En Ahad WSR 4930
H0003400dadeae4a8d39e84cb552a7cc;9999999;van dammne
3051389838;3051389838;Syamsul Project
3589145148;3589145148;En Azlee SDD
1063884747;1063884747;WAN_TERAS_12
H000340037110111000004261000835C;9999999;Farhan Project Teras WSR4966
2051475510;2051475510;MohdFazari
H000340037110111000004281000403D;9999999;Azhar Ahmad WXB759
H0003400F3A55A3F5DD11EAB9D0FDBB2;9999999;Testing40
H000340037110111000004291000806C;9999999;Mohadi Fss WPL4497
H0003400371101110000040A10004A9D;9999999;Mr Azlee BNQ361
H0003400d374000931ee14c6a797007d;9999999;IR AZWA 
H0003400371101110000042B100040CD;9999999;En Malek WPD2484
H0003400371101110000040E10008BDC;56756867;WXM4590
H0003400371101110000042C1000817C;9999999;W5324X Wan MunaiFah
1024565977;1024565977;wan_testcardmfg
0850016795;0850016795;wan_cardmfg2
H0003400ADCD712B5D1F704309F9117105;9999999;TENGKU OMAR ZAINAL ABIDIN
0067305985;0067305985;Haizam HP
H000340037110111000004231000824C;9999999;BJV6096 PLUS
H0003400000000000000000000000005;9999999;Rafie_Tag_Test_Aug2016
2866708978;2866708978;ALAN SMITH_POWER
